^C:\USERS\GARGANTUA\DESKTOP\OSCAR-GOLPH-MASTER\DEMO\CODE\MAIN.CPP
/c /I../../../ENGINE/HEADERS /I"C:\USERS\GARGANTUA\VCPKG\INSTALLED\X64-WINDOWS\INCLUDE" /ZI /nologo /W3 /WX- /diagnostics:classic /Od /D _DEBUG /D _WINDOWS /D _UNICODE /D UNICODE /Gm- /EHsc /RTC1 /MDd /GS /fp:precise /Zc:wchar_t /Zc:forScope /Zc:inline /Fo"X64\DEBUG\\" /Fd"X64\DEBUG\VC141.PDB" /Gd /TP /FC C:\USERS\GARGANTUA\DESKTOP\OSCAR-GOLPH-MASTER\DEMO\CODE\MAIN.CPP
^C:\USERS\DEHEX\DESKTOP\PROGRAMACION\UNIVERSIDAD\MOTORES\ECHO-ENGINE\DEMO\CODE\MAIN.CPP
/c /I../../../ENGINE/HEADERS /ZI /nologo /W3 /WX- /diagnostics:classic /Od /D _DEBUG /D _WINDOWS /D _UNICODE /D UNICODE /Gm- /EHsc /RTC1 /MDd /GS /fp:precise /Zc:wchar_t /Zc:forScope /Zc:inline /Fo"X64\DEBUG\\" /Fd"X64\DEBUG\VC141.PDB" /Gd /TP /FC C:\USERS\DEHEX\DESKTOP\PROGRAMACION\UNIVERSIDAD\MOTORES\ECHO-ENGINE\DEMO\CODE\MAIN.CPP
