^C:\USERS\GARGANTUA\DESKTOP\OSCAR-GOLPH-MASTER\DEMO\CODE\MAIN.CPP
C:\USERS\GARGANTUA\DESKTOP\OSCAR-GOLPH-MASTER\DEMO\PROJECT\DEMO\X64\DEBUG\VC141.PDB
C:\USERS\GARGANTUA\DESKTOP\OSCAR-GOLPH-MASTER\DEMO\PROJECT\DEMO\X64\DEBUG\VC141.IDB
C:\USERS\GARGANTUA\DESKTOP\OSCAR-GOLPH-MASTER\DEMO\PROJECT\DEMO\X64\DEBUG\MAIN.OBJ
^C:\USERS\DEHEX\DESKTOP\PROGRAMACION\UNIVERSIDAD\MOTORES\ECHO-ENGINE\DEMO\CODE\MAIN.CPP
C:\USERS\DEHEX\DESKTOP\PROGRAMACION\UNIVERSIDAD\MOTORES\ECHO-ENGINE\DEMO\PROJECT\DEMO\X64\DEBUG\VC141.PDB
C:\USERS\DEHEX\DESKTOP\PROGRAMACION\UNIVERSIDAD\MOTORES\ECHO-ENGINE\DEMO\PROJECT\DEMO\X64\DEBUG\VC141.IDB
C:\USERS\DEHEX\DESKTOP\PROGRAMACION\UNIVERSIDAD\MOTORES\ECHO-ENGINE\DEMO\PROJECT\DEMO\X64\DEBUG\MAIN.OBJ
