^I:\ECHOENGINE\ENGINE\PROJECT\ENGINEENTREGA\DEBUG\COMPONENT.OBJ|I:\ECHOENGINE\ENGINE\PROJECT\ENGINEENTREGA\DEBUG\COMPONENTRENDER.OBJ|I:\ECHOENGINE\ENGINE\PROJECT\ENGINEENTREGA\DEBUG\FILEMANAGER.OBJ|I:\ECHOENGINE\ENGINE\PROJECT\ENGINEENTREGA\DEBUG\KERNEL.OBJ|I:\ECHOENGINE\ENGINE\PROJECT\ENGINEENTREGA\DEBUG\MODULE.OBJ|I:\ECHOENGINE\ENGINE\PROJECT\ENGINEENTREGA\DEBUG\RENDERER.OBJ|I:\ECHOENGINE\ENGINE\PROJECT\ENGINEENTREGA\DEBUG\RENDERMODULE.OBJ|I:\ECHOENGINE\ENGINE\PROJECT\ENGINEENTREGA\DEBUG\SCENE.OBJ|I:\ECHOENGINE\ENGINE\PROJECT\ENGINEENTREGA\DEBUG\SDL_MAIN.OBJ|I:\ECHOENGINE\ENGINE\PROJECT\ENGINEENTREGA\DEBUG\TASK.OBJ|I:\ECHOENGINE\ENGINE\PROJECT\ENGINEENTREGA\DEBUG\TASKCOMPONENT.OBJ|I:\ECHOENGINE\ENGINE\PROJECT\ENGINEENTREGA\DEBUG\TASKENTITY.OBJ|I:\ECHOENGINE\ENGINE\PROJECT\ENGINEENTREGA\DEBUG\TASKGROUP.OBJ|I:\ECHOENGINE\ENGINE\PROJECT\ENGINEENTREGA\DEBUG\WINDOW.OBJ
/OUT:"I:\ECHOENGINE\DEMO\PROJECT\DEMO\DEBUG\ENGINEENTREGA.LIB" SDL2.LIB SDL2MAIN.LIB GLEW32.LIB OPENGL32.LIB /LIBPATH:../../../LIBRARIES/FREEGLUT/LIB/VS2010 /LIBPATH:../../../LIBRARIES/GLEW/LIB/ /LIBPATH:"../../../LIBRARIES/SDL2-2.0.7/LIB/X86" /NOLOGO DEBUG\COMPONENT.OBJDEBUG\COMPONENTRENDER.OBJDEBUG\FILEMANAGER.OBJDEBUG\KERNEL.OBJDEBUG\MODULE.OBJDEBUG\RENDERER.OBJDEBUG\RENDERMODULE.OBJDEBUG\SCENE.OBJDEBUG\SDL_MAIN.OBJDEBUG\TASK.OBJDEBUG\TASKCOMPONENT.OBJDEBUG\TASKENTITY.OBJDEBUG\TASKGROUP.OBJDEBUG\WINDOW.OBJ
^C:\USERS\GARGANTUA\DESKTOP\UNIVERSIDAD\MOTORES\ECHO ENGINE\ENGINE\PROJECT\ENGINEENTREGA\DEBUG\COMPONENT.OBJ|C:\USERS\GARGANTUA\DESKTOP\UNIVERSIDAD\MOTORES\ECHO ENGINE\ENGINE\PROJECT\ENGINEENTREGA\DEBUG\COMPONENTRENDER.OBJ|C:\USERS\GARGANTUA\DESKTOP\UNIVERSIDAD\MOTORES\ECHO ENGINE\ENGINE\PROJECT\ENGINEENTREGA\DEBUG\CONTROLCOMPONENT.OBJ|C:\USERS\GARGANTUA\DESKTOP\UNIVERSIDAD\MOTORES\ECHO ENGINE\ENGINE\PROJECT\ENGINEENTREGA\DEBUG\DISPATCHER.OBJ|C:\USERS\GARGANTUA\DESKTOP\UNIVERSIDAD\MOTORES\ECHO ENGINE\ENGINE\PROJECT\ENGINEENTREGA\DEBUG\ENTITY.OBJ|C:\USERS\GARGANTUA\DESKTOP\UNIVERSIDAD\MOTORES\ECHO ENGINE\ENGINE\PROJECT\ENGINEENTREGA\DEBUG\FILEMANAGER.OBJ|C:\USERS\GARGANTUA\DESKTOP\UNIVERSIDAD\MOTORES\ECHO ENGINE\ENGINE\PROJECT\ENGINEENTREGA\DEBUG\KERNEL.OBJ|C:\USERS\GARGANTUA\DESKTOP\UNIVERSIDAD\MOTORES\ECHO ENGINE\ENGINE\PROJECT\ENGINEENTREGA\DEBUG\LISTENER.OBJ|C:\USERS\GARGANTUA\DESKTOP\UNIVERSIDAD\MOTORES\ECHO ENGINE\ENGINE\PROJECT\ENGINEENTREGA\DEBUG\MESSAGE.OBJ|C:\USERS\GARGANTUA\DESKTOP\UNIVERSIDAD\MOTORES\ECHO ENGINE\ENGINE\PROJECT\ENGINEENTREGA\DEBUG\MODULE.OBJ|C:\USERS\GARGANTUA\DESKTOP\UNIVERSIDAD\MOTORES\ECHO ENGINE\ENGINE\PROJECT\ENGINEENTREGA\DEBUG\RENDERER.OBJ|C:\USERS\GARGANTUA\DESKTOP\UNIVERSIDAD\MOTORES\ECHO ENGINE\ENGINE\PROJECT\ENGINEENTREGA\DEBUG\RENDERMODULE.OBJ|C:\USERS\GARGANTUA\DESKTOP\UNIVERSIDAD\MOTORES\ECHO ENGINE\ENGINE\PROJECT\ENGINEENTREGA\DEBUG\SCENE.OBJ|C:\USERS\GARGANTUA\DESKTOP\UNIVERSIDAD\MOTORES\ECHO ENGINE\ENGINE\PROJECT\ENGINEENTREGA\DEBUG\SDL_MAIN.OBJ|C:\USERS\GARGANTUA\DESKTOP\UNIVERSIDAD\MOTORES\ECHO ENGINE\ENGINE\PROJECT\ENGINEENTREGA\DEBUG\TASK.OBJ|C:\USERS\GARGANTUA\DESKTOP\UNIVERSIDAD\MOTORES\ECHO ENGINE\ENGINE\PROJECT\ENGINEENTREGA\DEBUG\TASKCOMPONENT.OBJ|C:\USERS\GARGANTUA\DESKTOP\UNIVERSIDAD\MOTORES\ECHO ENGINE\ENGINE\PROJECT\ENGINEENTREGA\DEBUG\TASKENTITY.OBJ|C:\USERS\GARGANTUA\DESKTOP\UNIVERSIDAD\MOTORES\ECHO ENGINE\ENGINE\PROJECT\ENGINEENTREGA\DEBUG\TASKGROUP.OBJ|C:\USERS\GARGANTUA\DESKTOP\UNIVERSIDAD\MOTORES\ECHO ENGINE\ENGINE\PROJECT\ENGINEENTREGA\DEBUG\TRANSFORMCOMPONENT.OBJ|C:\USERS\GARGANTUA\DESKTOP\UNIVERSIDAD\MOTORES\ECHO ENGINE\ENGINE\PROJECT\ENGINEENTREGA\DEBUG\WINDOW.OBJ
/OUT:"C:\USERS\GARGANTUA\DESKTOP\UNIVERSIDAD\MOTORES\ECHO ENGINE\DEMO\PROJECT\DEMO\DEBUG\ENGINEENTREGA.LIB" SDL2.LIB SDL2MAIN.LIB GLEW32.LIB OPENGL32.LIB "SFML-MAIN.LIB" /LIBPATH:"../../../LIBRARIES/SFML-2.3-VS-2015/LIB" /LIBPATH:../../../LIBRARIES/FREEGLUT/LIB/VS2010 /LIBPATH:../../../LIBRARIES/GLEW/LIB/ /LIBPATH:"../../../LIBRARIES/SDL2-2.0.7/LIB/X86" /NOLOGO DEBUG\COMPONENT.OBJDEBUG\COMPONENTRENDER.OBJDEBUG\CONTROLCOMPONENT.OBJDEBUG\DISPATCHER.OBJDEBUG\ENTITY.OBJDEBUG\FILEMANAGER.OBJDEBUG\KERNEL.OBJDEBUG\LISTENER.OBJDEBUG\MESSAGE.OBJDEBUG\MODULE.OBJDEBUG\RENDERER.OBJDEBUG\RENDERMODULE.OBJDEBUG\SCENE.OBJDEBUG\SDL_MAIN.OBJDEBUG\TASK.OBJDEBUG\TASKCOMPONENT.OBJDEBUG\TASKENTITY.OBJDEBUG\TASKGROUP.OBJDEBUG\TRANSFORMCOMPONENT.OBJDEBUG\WINDOW.OBJ
^C:\USERS\DEHEX\DESKTOP\PROGRAMACION\UNIVERSIDAD\MOTORES\ECHO-ENGINE\ENGINE\PROJECT\ENGINEENTREGA\DEBUG\COMPONENT.OBJ|C:\USERS\DEHEX\DESKTOP\PROGRAMACION\UNIVERSIDAD\MOTORES\ECHO-ENGINE\ENGINE\PROJECT\ENGINEENTREGA\DEBUG\COMPONENTRENDER.OBJ|C:\USERS\DEHEX\DESKTOP\PROGRAMACION\UNIVERSIDAD\MOTORES\ECHO-ENGINE\ENGINE\PROJECT\ENGINEENTREGA\DEBUG\CONTROLCOMPONENT.OBJ|C:\USERS\DEHEX\DESKTOP\PROGRAMACION\UNIVERSIDAD\MOTORES\ECHO-ENGINE\ENGINE\PROJECT\ENGINEENTREGA\DEBUG\DISPATCHER.OBJ|C:\USERS\DEHEX\DESKTOP\PROGRAMACION\UNIVERSIDAD\MOTORES\ECHO-ENGINE\ENGINE\PROJECT\ENGINEENTREGA\DEBUG\ENTITY.OBJ|C:\USERS\DEHEX\DESKTOP\PROGRAMACION\UNIVERSIDAD\MOTORES\ECHO-ENGINE\ENGINE\PROJECT\ENGINEENTREGA\DEBUG\FILEMANAGER.OBJ|C:\USERS\DEHEX\DESKTOP\PROGRAMACION\UNIVERSIDAD\MOTORES\ECHO-ENGINE\ENGINE\PROJECT\ENGINEENTREGA\DEBUG\KERNEL.OBJ|C:\USERS\DEHEX\DESKTOP\PROGRAMACION\UNIVERSIDAD\MOTORES\ECHO-ENGINE\ENGINE\PROJECT\ENGINEENTREGA\DEBUG\LISTENER.OBJ|C:\USERS\DEHEX\DESKTOP\PROGRAMACION\UNIVERSIDAD\MOTORES\ECHO-ENGINE\ENGINE\PROJECT\ENGINEENTREGA\DEBUG\LISTENERMOVEMENT.OBJ|C:\USERS\DEHEX\DESKTOP\PROGRAMACION\UNIVERSIDAD\MOTORES\ECHO-ENGINE\ENGINE\PROJECT\ENGINEENTREGA\DEBUG\MESSAGE.OBJ|C:\USERS\DEHEX\DESKTOP\PROGRAMACION\UNIVERSIDAD\MOTORES\ECHO-ENGINE\ENGINE\PROJECT\ENGINEENTREGA\DEBUG\MODULE.OBJ|C:\USERS\DEHEX\DESKTOP\PROGRAMACION\UNIVERSIDAD\MOTORES\ECHO-ENGINE\ENGINE\PROJECT\ENGINEENTREGA\DEBUG\RENDERER.OBJ|C:\USERS\DEHEX\DESKTOP\PROGRAMACION\UNIVERSIDAD\MOTORES\ECHO-ENGINE\ENGINE\PROJECT\ENGINEENTREGA\DEBUG\RENDERMODULE.OBJ|C:\USERS\DEHEX\DESKTOP\PROGRAMACION\UNIVERSIDAD\MOTORES\ECHO-ENGINE\ENGINE\PROJECT\ENGINEENTREGA\DEBUG\SCENE.OBJ|C:\USERS\DEHEX\DESKTOP\PROGRAMACION\UNIVERSIDAD\MOTORES\ECHO-ENGINE\ENGINE\PROJECT\ENGINEENTREGA\DEBUG\SDL_MAIN.OBJ|C:\USERS\DEHEX\DESKTOP\PROGRAMACION\UNIVERSIDAD\MOTORES\ECHO-ENGINE\ENGINE\PROJECT\ENGINEENTREGA\DEBUG\TASK.OBJ|C:\USERS\DEHEX\DESKTOP\PROGRAMACION\UNIVERSIDAD\MOTORES\ECHO-ENGINE\ENGINE\PROJECT\ENGINEENTREGA\DEBUG\TASKCOMPONENT.OBJ|C:\USERS\DEHEX\DESKTOP\PROGRAMACION\UNIVERSIDAD\MOTORES\ECHO-ENGINE\ENGINE\PROJECT\ENGINEENTREGA\DEBUG\TASKENTITY.OBJ|C:\USERS\DEHEX\DESKTOP\PROGRAMACION\UNIVERSIDAD\MOTORES\ECHO-ENGINE\ENGINE\PROJECT\ENGINEENTREGA\DEBUG\TASKGROUP.OBJ|C:\USERS\DEHEX\DESKTOP\PROGRAMACION\UNIVERSIDAD\MOTORES\ECHO-ENGINE\ENGINE\PROJECT\ENGINEENTREGA\DEBUG\TASKLISTENER.OBJ|C:\USERS\DEHEX\DESKTOP\PROGRAMACION\UNIVERSIDAD\MOTORES\ECHO-ENGINE\ENGINE\PROJECT\ENGINEENTREGA\DEBUG\TRANSFORMCOMPONENT.OBJ|C:\USERS\DEHEX\DESKTOP\PROGRAMACION\UNIVERSIDAD\MOTORES\ECHO-ENGINE\ENGINE\PROJECT\ENGINEENTREGA\DEBUG\WINDOW.OBJ
/OUT:"C:\USERS\DEHEX\DESKTOP\PROGRAMACION\UNIVERSIDAD\MOTORES\ECHO-ENGINE\DEMO\PROJECT\DEMO\DEBUG\ENGINEENTREGA.LIB" SDL2.LIB SDL2MAIN.LIB GLEW32.LIB OPENGL32.LIB "SFML-MAIN.LIB" /LIBPATH:"../../../LIBRARIES/SFML-2.3-VS-2015/LIB" /LIBPATH:../../../LIBRARIES/FREEGLUT/LIB/VS2010 /LIBPATH:../../../LIBRARIES/GLEW/LIB/ /LIBPATH:"../../../LIBRARIES/SDL2-2.0.7/LIB/X86" /NOLOGO DEBUG\COMPONENT.OBJDEBUG\COMPONENTRENDER.OBJDEBUG\CONTROLCOMPONENT.OBJDEBUG\DISPATCHER.OBJDEBUG\ENTITY.OBJDEBUG\FILEMANAGER.OBJDEBUG\KERNEL.OBJDEBUG\LISTENER.OBJDEBUG\LISTENERMOVEMENT.OBJDEBUG\MESSAGE.OBJDEBUG\MODULE.OBJDEBUG\RENDERER.OBJDEBUG\RENDERMODULE.OBJDEBUG\SCENE.OBJDEBUG\SDL_MAIN.OBJDEBUG\TASK.OBJDEBUG\TASKCOMPONENT.OBJDEBUG\TASKENTITY.OBJDEBUG\TASKGROUP.OBJDEBUG\TASKLISTENER.OBJDEBUG\TRANSFORMCOMPONENT.OBJDEBUG\WINDOW.OBJ
