^C:\USERS\GARGANTUA\DESKTOP\UNIVERSIDAD\MOTORES\ECHO ENGINE\DEMO\CODE\MAIN.CPP
/c /I../../../ENGINE/HEADERS /I"C:\USERS\GARGANTUA\VCPKG\INSTALLED\X86-WINDOWS\INCLUDE" /ZI /nologo /W3 /WX- /diagnostics:classic /Od /Oy- /D WIN32 /D _DEBUG /D _WINDOWS /D _UNICODE /D UNICODE /Gm- /EHsc /RTC1 /MDd /GS /fp:precise /Zc:wchar_t /Zc:forScope /Zc:inline /Fo"DEBUG\\" /Fd"DEBUG\VC141.PDB" /Gd /TP /analyze- /FC C:\USERS\GARGANTUA\DESKTOP\UNIVERSIDAD\MOTORES\ECHO ENGINE\DEMO\CODE\MAIN.CPP
^C:\USERS\DEHEX\DESKTOP\PROGRAMACION\UNIVERSIDAD\MOTORES\ECHO-ENGINE\DEMO\CODE\MAIN.CPP
/c /I../../../ENGINE/HEADERS /ZI /nologo /W3 /WX- /diagnostics:classic /Od /Oy- /D WIN32 /D _DEBUG /D _WINDOWS /D _UNICODE /D UNICODE /Gm- /EHsc /RTC1 /MDd /GS /fp:precise /Zc:wchar_t /Zc:forScope /Zc:inline /Fo"DEBUG\\" /Fd"DEBUG\VC141.PDB" /Gd /TP /analyze- /FC C:\USERS\DEHEX\DESKTOP\PROGRAMACION\UNIVERSIDAD\MOTORES\ECHO-ENGINE\DEMO\CODE\MAIN.CPP
