^C:\USERS\DEHEX\DESKTOP\PROGRAMACION\UNIVERSIDAD\MOTORES\ECHO-ENGINE\DEMO\PROJECT\DEMO\DEBUG\MAIN.OBJ
C:\USERS\DEHEX\DESKTOP\PROGRAMACION\UNIVERSIDAD\MOTORES\ECHO-ENGINE\DEMO\PROJECT\DEMO\DEBUG\DEMO.EXE
C:\USERS\DEHEX\DESKTOP\PROGRAMACION\UNIVERSIDAD\MOTORES\ECHO-ENGINE\DEMO\PROJECT\DEMO\DEBUG\DEMO.ILK
C:\USERS\DEHEX\DESKTOP\PROGRAMACION\UNIVERSIDAD\MOTORES\ECHO-ENGINE\DEMO\PROJECT\DEMO\DEBUG\DEMO.PDB
