^C:\USERS\GARGANTUA\DESKTOP\OSCAR-GOLPH-MASTER\ENGINE\CODE\SDL_MAIN.CPP
^C:\USERS\GARGANTUA\DESKTOP\UNIVERSIDAD\MOTORES\ECHO ENGINE\ENGINE\CODE\SDL_MAIN.CPP
^C:\USERS\GARGANTUA\DESKTOP\UNIVERSIDAD\MOTORES\ECHO ENGINE\ENGINE\CODE\LISTENER.CPP
^C:\USERS\DEHEX\DESKTOP\PROGRAMACION\UNIVERSIDAD\MOTORES\ECHO-ENGINE\ENGINE\CODE\LISTENER.CPP
^C:\USERS\DEHEX\DESKTOP\PROGRAMACION\UNIVERSIDAD\MOTORES\ECHO-ENGINE\ENGINE\CODE\SDL_MAIN.CPP
